OV5640_SDCard/.Xil/Vivado-18440-LiuYang-Laptop/hw_ila_data_2/zip_work/waveform.vcd
$date
        2020-Nov-15 10:14:24
$end
$version
        Vivado v2018.3 (64-bit)
$end
$timescale
        1ps
$end
$scope module dut $end
$var reg 24 " system_i/system_ila_1/inst/probe0_1 [23:0] $end
$var reg 1 : _TRIGGER $end
$var reg 1 ; _WINDOW $end
$var reg 1 < _GAP $end
$upscope $end
$enddefinitions $end
#0
$dumpvars
b110000001010100011000000 "
0:
1;
0<
$end
#5
b101110001010110011000000 "
#7
b101110001011000011000000 "
#9
b101100001011000011000000 "
#14
b101110001010110011000000 "
#25
b101110001010100011000000 "
#46
b101100001010100011000000 "
#55
b101110001010110011000000 "
#57
b101110001010100011000000 "
#60
b101110001010110010111000 "
#64
b101110001010100010111000 "
#69
b101100001010100011000000 "
#73
b101110001010100011000000 "
#82
b101110001010100010111000 "
#87
b101100001010100011000000 "
#91
b101100001010110011000000 "
#92
b101100001010010011000000 "
#112
b101100001010100011000000 "
#121
b101100001010010011000000 "
#124
b101100001010010010111000 "
#128
b101100001010100010111000 "
#130
b101100001010010010111000 "
#151
b101010001010010010111000 "
#153
b101100001010100010111000 "
#155
b101100001010110011111000 "
#156
b101100001010010011000000 "
#160
b101100001010000011000000 "
#165
b101100001010000010111000 "
#169
b101100001010010010111000 "
#178
b101100001010000010111000 "
#183
b101100001010000011000000 "
#187
b101110001010000010111000 "
#192
b101100001010000010111000 "
#197
b101100001010010010111000 "
#201
b101010001010010010111000 "
#206
b101100001010010010111000 "
#208
b101010001010010010111000 "
#210
b101100001010010010111000 "
#215
b101010001010010010111000 "
#219
b101100001010010011111000 "
#220
b101100001010010011000000 "
#222
b101100001010000011000000 "
#224
b101100001010000010111000 "
#238
b101100001010000010110000 "
#245
b101100001010000010111000 "
#247
b101100001010010010111000 "
#256
b101010001010010010111000 "
#265
b101010001010000010111000 "
#267
b101010001010010010111000 "
#270
b101100001010000010111000 "
#274
b101100001010000010110000 "
#277
b101100001010000010111000 "
#288
b101010001010000010111000 "
#293
b101100001010000010111000 "
#300
b101100001010000010110000 "
#304
b101100001010000010111000 "
#311
b101100001010010010110000 "
#313
b101100001010100010110000 "
#318
b101100001010110010110000 "
#320
b101100001010100010110000 "
#325
b101100001010010010110000 "
#327
b101100001010100010111000 "
#332
b101100001010110010111000 "
#334
b101110001010110010111000 "
#341
b101110001010110011000000 "
#343
b101110001011000011000000 "
#357
b101110001011000011001000 "
#361
b101110001011000011000000 "
#370
b101100001011010011000000 "
#377
b101100001011000010111000 "
#386
b101010001010110010111000 "
#389
b101010001010100010111000 "
#391
b101000001010010010111000 "
#393
b101000001010000010110000 "
#396
b101000001001110010101000 "
#398
b100110001001100010101000 "
#400
b100100001001010010100000 "
#402
b100010001000110010100000 "
#405
b100010001000100010100000 "
#407
b100000001000000010011000 "
#409
b11110000111110010011000 "
#412
b11110000111100010010000 "
#414
b11100000111000010001000 "
#416
b11010000111000010000000 "
#418
b11010000110110010000000 "
#421
b11010000110100010001000 "
#423
b11010000110100010000000 "
#425
b11000000110010010000000 "
#430
b11010000110010010000000 "
#432
b11010000110100010001000 "
#439
b10110000110100010001000 "
#443
b11000000110100010001000 "
#446
b11000000110010010001000 "
#448
b11010000110010010001000 "
#453
b11000000110010010001000 "
#457
b11000000110010010000000 "
#462
b10110000110010010001000 "
#466
b11000000110010010001000 "
#469
b10110000110000010001000 "
#471
b10110000110010010001000 "
#475
b11000000110000010001000 "
#485
b11010000110000010001000 "
#489
b11010000110010010000000 "
#494
b11000000110010010000000 "
#498
b10110000110100010000000 "
#501
b10110000110010010000000 "
#510
b10110000110100010000000 "
#512
1:
#517
b10110000110010010001000 "
#519
b10100000110000010000000 "
#521
b10110000110100010000000 "
#526
b11000000110000010001000 "
#528
b11010000110000010001000 "
#530
b11000000110010010001000 "
#533
b10110000110000010000000 "
#537
b10110000110010010000000 "
#544
b11000000110100010001000 "
#546
b11000000110010010000000 "
#551
b11000000110010010001000 "
#553
b11010000110010010001000 "
#558
b11000000110100010001000 "
#560
b11000000110100010000000 "
#562
b11010000110010010000000 "
#565
b11000000110010010000000 "
#567
b11010000110010010000000 "
#576
b11000000110010010000000 "
#578
b11000000110010010001000 "
#581
b11000000110100010000000 "
#583
b11000000110100010001000 "
#590
b11000000110010010001000 "
#592
b11000000110010010000000 "
#599
b11000000110000010000000 "
#603
b10110000110010010000000 "
#608
b10110000110100001111000 "
#613
b10110000110010010000000 "
#617
b11000000110000010000000 "
#622
b11000000110010010000000 "
#626
b10110000110010010000000 "
#629
b11000000110010010000000 "
#631
b10110000110100010000000 "
#633
b10100000110100010000000 "
#638
b10100000110010010000000 "
#640
b11000000110000010000000 "
#642
b11000000110010010000000 "
#645
b11000000110010010001000 "
#649
b10100000110010010000000 "
#654
b10100000101100010000000 "
#656
b1110000100000001110000 "
#658
b1110000010100001010000 "
#661
b1100000010000001001000 "
#663
b1010000010100001000000 "
#667
b1100000011100001000000 "
#668
b1100000011000001000000 "
#670
b1110000011010001000000 "
#672
b10000000011100001001000 "
#677
b10000000011100001010000 "
#681
b10000000011000001010000 "
#684
b10000000011010001010000 "
#686
b10000000011010001001000 "
#688
b10100000100000001011000 "
#690
b10100000101000001010000 "
#693
b11000000110000001100000 "
#695
b11000000110000001101000 "
#697
b10110000101110001100000 "
#700
b11000000101000001101000 "
#702
b11000000101010001101000 "
#706
b11010000101100001110000 "
#709
b11010000101110001101000 "
#711
b11000000101100001101000 "
#718
b11000000101100001100000 "
#722
b11000000101100001101000 "
#725
b11010000101110001101000 "
#727
b11000000101110001101000 "
#729
b10110000101010001100000 "
#736
b10110000101010001101000 "
#738
b10110000101100001101000 "
#741
b11000000110010001101000 "
#743
b11000000110100001110000 "
#745
b11010000110000001101000 "
#747
b11010000111000001101000 "
#748
b10110000101000001011000 "
#750
b11000000101100001101000 "
#752
b11000000101110001101000 "
#754
b11000000110000001101000 "
#757
b10100000101000001011000 "
#759
b10010000100000001001000 "
#763
b10000000100000001001000 "
#766
b10010000100100001010000 "
#768
b10100000100100001010000 "
#770
b10100000100110001010000 "
#773
b10100000101000001010000 "
#775
b10100000101000001011000 "
#777
b10110000101000001011000 "
#780
b10110000101010001011000 "
#782
b11000000101010001100000 "
#784
b11010000101010001100000 "
#786
b11000000101100001100000 "
#791
b10110000101000001101000 "
#795
b10010000100000001011000 "
#796
b10010000100000001010000 "
#798
b10110000101000001100000 "
#800
b11000000101100001100000 "
#802
b11000000101110001101000 "
#807
b11000000110000001101000 "
#809
b11010000110000001101000 "
#811
b11010000110000001111000 "
#812
b11010000110000001110000 "
#814
b11000000110100001101000 "
#816
b10110000110100001101000 "
#818
b10110000101100001101000 "
#821
b10100000100110001100000 "
#823
b10110000100110001011000 "
#825
b10100000100010001010000 "
#827
b10100000101010001010000 "
#828
b10000000011100001000000 "
#830
b1010000010010000110000 "
#832
b1010000010100000110000 "
#834
b1010000010010000110000 "
#837
b1010000010000000110000 "
#841
b1100000010010000110000 "
#846
b1100000010000000110000 "
#853
b1100000001110000110000 "
#855
b1010000001110000110000 "
#857
b1010000001110000101000 "
#860
b1000000001110000101000 "
#864
b1000000001110000100000 "
#869
b1010000001110000100000 "
#878
b1000000010000000100000 "
#880
b1010000010100000101000 "
#882
b1100000010100000110000 "
#885
b1100000010100000111000 "
#887
b1100000010010000111000 "
#892
b1100000010100000111000 "
#896
b1100000010110001000000 "
#898
b1100000011000001000000 "
#901
b1100000010100000110000 "
#903
b10000000011100001001000 "
#905
b10100000101010001100000 "
#907
b10110000101010001100000 "
#908
b10010000100110001011000 "
#910
b10100000100110001011000 "
#914
b10110000100110001010000 "
#917
b11000000101000001011000 "
#919
b11000000101100001100000 "
#923
b11010000101100001100000 "
#928
b11100000101110001100000 "
#930
b11100000110000001100000 "
#933
b11010000110010001101000 "
#935
b11100000110010001101000 "
#937
b11100000110110001101000 "
#942
b11010000111000001101000 "
#944
b11100000111000001101000 "
#946
b11010000111000001110000 "
#949
b11100000111010001110000 "
#951
b11100000111000001110000 "
#953
b11100000111010001110000 "
#955
b11110000111010001110000 "
#960
b11100000111010001111000 "
#962
b11010000111010001110000 "
#965
b11010000111000001111000 "
#967
b11010000111000001110000 "
#969
b11010000110110001110000 "
#972
b11010000110110001101000 "
#974
b11000000110110001110000 "
#978
b11000000110100001110000 "
#981
b11000000110100001101000 "
#983
b11010000110010001101000 "
#987
b11000000110010001101000 "
#997
b11010000110000001101000 "
#999
b11000000101110001101000 "
#1001
b11010000101110001100000 "
#1003
b11100000110100001101000 "
#1004
b11100000110000001101000 "
#1006
b11010000110000001101000 "
#1010
b11010000110010001101000 "
#1017
b11010000110000001101000 "
#1019
b11000000110010001101000 "
#1020
b11000000110010001100000 "
#1022
b11000000110100001100000 "
