OV5640_SDCard/.Xil/Vivado-18440-LiuYang-Laptop/hw_ila_data_3/zip_work/waveform.vcd
$date
        2020-Nov-15 10:14:21
$end
$version
        Vivado v2018.3 (64-bit)
$end
$timescale
        1ps
$end
$scope module dut $end
$var reg 24 " system_i/system_ila_2/inst/probe0_1 [23:0] $end
$var reg 1 : _TRIGGER $end
$var reg 1 ; _WINDOW $end
$var reg 1 < _GAP $end
$upscope $end
$enddefinitions $end
#0
$dumpvars
b1100000010010000111000 "
0:
1;
0<
$end
#223
b101100001011000011000000 "
#228
b101110001011000011000000 "
#231
b101100001011010011000000 "
#234
b101110001010110011000000 "
#239
b101110001010100011001000 "
#242
b101110001010110011000000 "
#243
b101110001010110011001000 "
#245
b101110001011000011001000 "
#246
b101100001010110011000000 "
#247
b101100001011000011000000 "
#250
b101110001010110011000000 "
#254
b101110001011000011001000 "
#255
b101110001011000011000000 "
#258
b101110001010110011000000 "
#259
b101100001010110011000000 "
#266
b101110001011000011000000 "
#267
b101110001011110011000000 "
#268
b101110001010110011000000 "
#269
b101100001010110011000000 "
#274
b101110001010100011000000 "
#280
b101100001010110011000000 "
#282
b101110001010110011000000 "
#284
b101100001010110011000000 "
#285
b101110001010100011000000 "
#290
b101100001010100011000000 "
#296
b101110001010100011000000 "
#298
b101110001010110011000000 "
#299
b101100001010110011000000 "
#300
b101100001010100011000000 "
#304
b101110001010100010111000 "
#307
b101100001010110011000000 "
#309
b101100001010100011000000 "
#312
b101110001010100011000000 "
#315
b101100001010100011000000 "
#317
b101100001010100010111000 "
#320
b101100001010010011000000 "
#321
b101100001010100011000000 "
#323
b101110001010010011000000 "
#328
b101100001010100010111000 "
#333
b101100001010110010111000 "
#334
b101100001010010010111000 "
#342
b101110001010000010111000 "
#344
b101100001010010010111000 "
#346
b101100001010000010111000 "
#347
b101010001010010010111000 "
#350
b101010001010010011000000 "
#352
b101100001010000011000000 "
#355
b101100001010010011000000 "
#358
b101100001010100010111000 "
#360
b101010001010100010111000 "
#363
b101100001010010010111000 "
#366
b101100001010000010111000 "
#368
b101100001010010011111000 "
#369
b101100001010010011000000 "
#371
b101100001010010010111000 "
#374
b101100001010000010111000 "
#377
b101100001010010010111000 "
#378
b101010001010010010111000 "
#382
b101010001010000011000000 "
#383
b101010001010000010111000 "
#385
b101100001010000010111000 "
#390
b101010001010000010111000 "
#395
b101010001010010010111000 "
#398
b101010001010010010110000 "
#401
b101010001010010010111000 "
#408
b101010001010000010110000 "
#409
b101010001010000010111000 "
#410
b101010001010010010111000 "
#412
b101100001010000010111000 "
#414
b101010001010010010111000 "
#417
b101010001010100010110000 "
#420
b101010001010010010110000 "
#422
b101000001010010010110000 "
#425
b101010001010010010110000 "
#428
b101010001010010010111000 "
#429
b101010001010010010110000 "
#430
b101100001010000010110000 "
#433
b101100001010000010111000 "
#436
b101010001010000010111000 "
#439
b101010001010000010110000 "
#444
b101100001010000010111000 "
#445
b101010001010000010111000 "
#447
b101100001001110010111000 "
#449
b101010001001110010111000 "
#452
b101010001010000010111000 "
#455
b101100001010010010110000 "
#457
b101100001010000010111000 "
#459
b101100001010010010111000 "
#463
b101010001010100010111000 "
#468
b101100001010100010111000 "
#471
b101100001010110011000000 "
#475
b101100001011000011000000 "
#476
b101110001010110011000000 "
#478
b101110001011000011000000 "
#480
b101100001010110011000000 "
#484
b101010001011000011000000 "
#487
b101010001010110010111000 "
#490
b101010001010100010111000 "
#491
b101000001010010010110000 "
#492
b101000001010000010110000 "
#494
b100110001001110010101000 "
#495
b100100001001100010110000 "
#496
b100100001001010010101000 "
#498
b100010001001000010100000 "
#499
b100000001000110010100000 "
#500
b111110001000110010111000 "
#501
b11110001000010010011000 "
#502
b11110000111110010010000 "
#503
b11110000111010010010000 "
#505
b11100000111000010001000 "
#507
b11100000110110010001000 "
#509
b11010000110100010001000 "
#511
b11000000110010010000000 "
#512
1:
#514
b11000000110100010000000 "
#517
b11000000110010010000000 "
#522
b11000000110010010001000 "
#525
b10110000110100010000000 "
#526
b10110000110100010001000 "
#527
b10100000110100010001000 "
#530
b11000000110010010001000 "
#533
b10110000110010010001000 "
#538
b11000000110100010000000 "
#541
b10110000110100010000000 "
#544
b11000000110010010001000 "
#546
b11010000110000010001000 "
#550
b11010000110010010001000 "
#552
b10110000110100010001000 "
#557
b11000000110100010001000 "
#558
b11000000110010010000000 "
#561
b11000000110000010000000 "
#565
b11000000110010010001000 "
#568
b10110000110010010001000 "
#569
b10110000110000010001000 "
#573
b11000000110010010000000 "
#576
b11000000110000010000000 "
#580
b11010000110010010001000 "
#581
b10110000110010010001000 "
#583
b11000000110010010001000 "
#584
b10110000110010010000000 "
#587
b11000000110010010000000 "
#589
b11010000110000010001000 "
#595
b11010000110010010001000 "
#600
b11000000110100010000000 "
#601
b11000000110110010000000 "
#602
b11000000110010010000000 "
#604
b11000000110100010000000 "
#606
b10110000110010010001000 "
#607
b11000000110100010001000 "
#614
b10110000110100010000000 "
#623
b10110000110010010000000 "
#624
b10110000110010001111000 "
#626
b10110000110010010000000 "
#634
b10110000110100010000000 "
#635
b10110000110010010000000 "
#641
b10100000110100001111000 "
#643
b10010000110010001111000 "
#646
b10010000101010001111000 "
#647
b1110000100000001101000 "
#649
b1100000010100001001000 "
#650
b1010000010010001001000 "
#651
b1010000010100001000000 "
#655
b1100000011000001001000 "
#657
b1100000011010001001000 "
#658
b1100000011100001010000 "
#659
b1100000011100001001000 "
#661
b1110000011110001010000 "
#662
b1110000011110001001000 "
#663
b1110000100000001001000 "
#665
b10000000011100001001000 "
#666
b10100000100010001011000 "
#667
b10110000101010001011000 "
#669
b10110000101100001100000 "
#670
b11000000101110001101000 "
#673
b11000000101110001100000 "
#676
b11000000110000001100000 "
#677
b11000000110000001101000 "
#678
b11000000110000001100000 "
#681
b11000000101110001100000 "
#684
b11000000101100001101000 "
#686
b11000000101010001101000 "
#688
b10110000101010001100000 "
#689
b10110000101010001011000 "
#690
b10110000101100001100000 "
#692
b10110000101100001011000 "
#693
b10110000101100001100000 "
#694
b11000000101100001101000 "
#697
b11000000101010001101000 "
#698
b10110000100110001101000 "
#699
b10110000100110001100000 "
#700
b10100000100000001010000 "
#701
b10010000011110001001000 "
#702
b10010000011110001011000 "
#703
b10000000010110000111000 "
#704
b10000000011000000111000 "
#705
b10010000011000000111000 "
#707
b10010000011010000111000 "
#709
b10000000011000000110000 "
#711
b10100000011110001000000 "
#712
b10110000100100001001000 "
#713
b11000000101110001100000 "
#715
b10110000101010001011000 "
#716
b10110000100110001011000 "
#717
b10100000100100001011000 "
#719
b10100000011100001001000 "
#720
b10110000011110001010000 "
#721
b10100000100010001010000 "
#724
b10100000100000001010000 "
#725
b10010000011110001010000 "
#727
b10100000100000001001000 "
#729
b11000000100000001001000 "
#732
b11000000011110001010000 "
#733
b11010000111110001010000 "
#734
b11010000100010001010000 "
#735
b10100000100100001010000 "
#738
b10100000100010001010000 "
#742
b10110000100100001010000 "
#743
b10100000100100001010000 "
#746
b10100000101000001100000 "
#747
b10010000100100001011000 "
#748
b1100000010110000111000 "
#750
b1100000010100000110000 "
#752
b1010000010010000110000 "
#754
b1100000010000000110000 "
#756
b1100000010010000110000 "
#759
b1100000010000000110000 "
#763
b1100000010000000101000 "
#764
b1110000001110000101000 "
#765
b1010000001110000101000 "
#767
b1010000001100000101000 "
#770
b1010000001100000100000 "
#773
b1000000001100000100000 "
#778
b1000000001010000011000 "
#779
b1100000010010000101000 "
#781
b1110000011100000111000 "
#782
b1100000011000000110000 "
#783
b1110000010110000111000 "
#787
b1110000010110001000000 "
#789
b1110000010110000111000 "
#790
b10000000011000000111000 "
#791
b10000000010100001000000 "
#793
b10100000011100001001000 "
#794
b10110000101010001011000 "
#795
b10100000100110001010000 "
#797
b10110000100100001011000 "
#798
b10110000100100001100000 "
#799
b10110000100110001100000 "
#801
b11000000101000001101000 "
#802
b10110000101100001101000 "
#804
b11000000101100001101000 "
#805
b11000000101110001100000 "
#806
b11010000110000001100000 "
#808
b11000000101110001100000 "
#809
b11000000110000001101000 "
#810
b11000000110010001100000 "
#812
b11010000110100001101000 "
#814
b11010000110110001101000 "
#817
b11100000111000001101000 "
#818
b11100000110110001110000 "
#821
b11100000111000001110000 "
#824
b11100000111000001101000 "
#825
b11110000111000001110000 "
#826
b11110000111010010000000 "
#829
b11110000111100001111000 "
#830
b11110000111010001111000 "
#832
b11100000111100001111000 "
#836
b11100000111010001111000 "
#839
b11100000111000001111000 "
#843
b11110000111000001111000 "
#844
b11100000110110001110000 "
#845
b11100000111000001110000 "
#848
b11010000111010001110000 "
#851
b11100000111010001110000 "
#855
b11010000111000001110000 "
#856
b11100000110110001110000 "
#861
b11010000111000001110000 "
#865
b11010000111110001101000 "
#866
b11010000110110001101000 "
#867
b11010000110110001110000 "
#868
b11010000110100001110000 "
#870
b11010000110100001101000 "
#871
b11010000110100001110000 "
#872
b11100000110100001110000 "
#874
b11010000110100001110000 "
#875
b11100000110100001110000 "
#878
b11010000110100001110000 "
#880
b11010000110110001101000 "
#883
b11010000110110001110000 "
#884
b11010000110110001101000 "
#886
b11010000110100001110000 "
#890
b11010000110110001110000 "
#895
b11010000111000001110000 "
#899
b11100000110110001111000 "
#900
b11110000111110001111000 "
#901
b10110000101100001100000 "
#902
b10100000101010001100000 "
#903
b10110000101100001100000 "
#906
b10100000101010001100000 "
#907
b10100000101010001011000 "
#909
b10010000101000001010000 "
#910
b10010000100110001011000 "
#911
b1110000011100001001000 "
#913
b1010000001010000101000 "
#914
b1110000010010000111000 "
#915
b1010000010010000111000 "
#918
b1100000010010000110000 "
#921
b1010000010010000110000 "
#922
b1010000010100000110000 "
#929
b1010000010100000111000 "
#931
b1100000010010000111000 "
#934
b1100000010100000110000 "
#935
b1100000010110000110000 "
#936
b1100000010110000111000 "
#937
b1010000010110000110000 "
#940
b1100000010110000111000 "
#942
b1100000010100000111000 "
#945
b1010000010110000111000 "
#946
b1010000010100000110000 "
#948
b1000000001110000101000 "
#952
b1000000001100000100000 "
#962
b1000000001110000100000 "
#964
b1000000001110000101000 "
#966
b1000000001010000101000 "
#968
b1100000010010000111000 "
#969
b1010000010110001000000 "
#971
b1100000011010001001000 "
#972
b1010000011000001011000 "
#973
b1100000011010001100000 "
#975
b1010000011000001100000 "
#976
b1100000011010001101000 "
#977
b1010000011010001101000 "
#979
b1010000011100001101000 "
#980
b1010000011010001101000 "
#981
b1010000011100001101000 "
#983
b1100000011100001101000 "
#984
b1010000011010001101000 "
#985
b1110000011010001101000 "
#987
b1110000011000001100000 "
#988
b10000000011100001011000 "
#989
b10100000100010001100000 "
#991
b10110000100100001100000 "
#992
b11000000100110001101000 "
#993
b11010000110110001111000 "
#995
b11000000110010001110000 "
#996
b11000000110000001101000 "
#997
b11010000110010001110000 "
#999
b11000000110010001101000 "
#1000
b11000000110100001110000 "
#1001
b11000000110100001111000 "
#1002
b10110000110100001101000 "
#1003
b11000000110100001110000 "
#1004
b10110000110110001110000 "
#1007
b10110000110010001110000 "
#1008
b10010000101100001100000 "
#1010
b10010000100110001101000 "
#1011
b10000000100100001101000 "
#1012
b10000000100010001010000 "
#1014
b10000000100100001011000 "
#1015
b10100000110100001101000 "
#1016
b10100000110010001100000 "
#1018
b11000000110110010000000 "
#1019
b10010000101010001101000 "
#1020
b1100000010110001110000 "
#1022
b1110000011100001111000 "
#1023
b1010000011110001111000 "
