OV5640_SDCard/.Xil/Vivado-18440-LiuYang-Laptop/hw_ila_data_1/zip_work/waveform.vcd
$date
        2020-Nov-15 10:14:34
$end
$version
        Vivado v2018.3 (64-bit)
$end
$timescale
        1ps
$end
$scope module dut $end
$var reg 24 " system_i/system_ila_0/inst/net_slot_0_axis_tdata [23:0] $end
$var reg 3 : system_i/system_ila_0/inst/net_slot_0_axis_tkeep [2:0] $end
$var reg 1 = system_i/system_ila_0/inst/net_slot_0_axis_tuser $end
$var reg 1 > system_i/system_ila_0/inst/net_slot_0_axis_tvalid $end
$var reg 1 ? system_i/system_ila_0/inst/net_slot_0_axis_tready $end
$var reg 1 @ system_i/system_ila_0/inst/net_slot_0_axis_tlast $end
$var reg 2 A system_i/system_ila_0/inst/net_slot_1_axi_ar_cnt [1:0] $end
$var reg 32 C system_i/system_ila_0/inst/net_slot_1_axi_araddr [31:0] $end
$var reg 1 c system_i/system_ila_0/inst/net_slot_1_axi_arid $end
$var reg 4 d system_i/system_ila_0/inst/net_slot_1_axi_arlen [3:0] $end
$var reg 3 h system_i/system_ila_0/inst/net_slot_1_axi_arprot [2:0] $end
$var reg 3 k system_i/system_ila_0/inst/net_slot_1_axi_arsize [2:0] $end
$var reg 2 n system_i/system_ila_0/inst/net_slot_1_axi_aw_cnt [1:0] $end
$var reg 32 p system_i/system_ila_0/inst/net_slot_1_axi_awaddr [31:0] $end
$var reg 1 2" system_i/system_ila_0/inst/net_slot_1_axi_awid $end
$var reg 4 3" system_i/system_ila_0/inst/net_slot_1_axi_awlen [3:0] $end
$var reg 3 7" system_i/system_ila_0/inst/net_slot_1_axi_awprot [2:0] $end
$var reg 3 :" system_i/system_ila_0/inst/net_slot_1_axi_awsize [2:0] $end
$var reg 2 =" system_i/system_ila_0/inst/net_slot_1_axi_b_cnt [1:0] $end
$var reg 1 ?" system_i/system_ila_0/inst/net_slot_1_axi_bid $end
$var reg 2 @" system_i/system_ila_0/inst/net_slot_1_axi_bresp [1:0] $end
$var reg 2 B" system_i/system_ila_0/inst/net_slot_1_axi_r_cnt [1:0] $end
$var reg 64 D" system_i/system_ila_0/inst/net_slot_1_axi_rdata [63:0] $end
$var reg 1 &# system_i/system_ila_0/inst/net_slot_1_axi_rid $end
$var reg 2 '# system_i/system_ila_0/inst/net_slot_1_axi_rresp [1:0] $end
$var reg 64 )# system_i/system_ila_0/inst/net_slot_1_axi_wdata [63:0] $end
$var reg 1 i# system_i/system_ila_0/inst/net_slot_1_axi_wid $end
$var reg 8 j# system_i/system_ila_0/inst/net_slot_1_axi_wstrb [7:0] $end
$var reg 1 r# system_i/system_ila_0/inst/net_slot_1_axi_awvalid $end
$var reg 2 s# system_i/system_ila_0/inst/net_slot_1_axi_aw_ctrl [1:0] $end
$var reg 1 u# system_i/system_ila_0/inst/net_slot_1_axi_awready $end
$var reg 1 v# system_i/system_ila_0/inst/net_slot_1_axi_wvalid $end
$var reg 3 w# system_i/system_ila_0/inst/net_slot_1_axi_w_ctrl [2:0] $end
$var reg 1 z# system_i/system_ila_0/inst/net_slot_1_axi_wready $end
$var reg 1 {# system_i/system_ila_0/inst/net_slot_1_axi_wlast $end
$var reg 2 |# system_i/system_ila_0/inst/net_slot_1_axi_b_ctrl [1:0] $end
$var reg 1 ~# system_i/system_ila_0/inst/net_slot_1_axi_bvalid $end
$var reg 1 !$ system_i/system_ila_0/inst/net_slot_1_axi_bready $end
$var reg 2 "$ system_i/system_ila_0/inst/net_slot_1_axi_ar_ctrl [1:0] $end
$var reg 1 $$ system_i/system_ila_0/inst/net_slot_1_axi_arvalid $end
$var reg 1 %$ system_i/system_ila_0/inst/net_slot_1_axi_arready $end
$var reg 3 &$ system_i/system_ila_0/inst/net_slot_1_axi_r_ctrl [2:0] $end
$var reg 1 )$ system_i/system_ila_0/inst/net_slot_1_axi_rvalid $end
$var reg 1 *$ system_i/system_ila_0/inst/net_slot_1_axi_rready $end
$var reg 1 +$ system_i/system_ila_0/inst/net_slot_1_axi_rlast $end
$var reg 2 ,$ system_i/system_ila_0/inst/net_slot_2_axi_ar_cnt [1:0] $end
$var reg 9 .$ system_i/system_ila_0/inst/net_slot_2_axi_araddr [8:0] $end
$var reg 2 7$ system_i/system_ila_0/inst/net_slot_2_axi_aw_cnt [1:0] $end
$var reg 9 9$ system_i/system_ila_0/inst/net_slot_2_axi_awaddr [8:0] $end
$var reg 2 B$ system_i/system_ila_0/inst/net_slot_2_axi_b_cnt [1:0] $end
$var reg 2 D$ system_i/system_ila_0/inst/net_slot_2_axi_bresp [1:0] $end
$var reg 2 F$ system_i/system_ila_0/inst/net_slot_2_axi_r_cnt [1:0] $end
$var reg 32 H$ system_i/system_ila_0/inst/net_slot_2_axi_rdata [31:0] $end
$var reg 2 h$ system_i/system_ila_0/inst/net_slot_2_axi_rresp [1:0] $end
$var reg 32 j$ system_i/system_ila_0/inst/net_slot_2_axi_wdata [31:0] $end
$var reg 4 ,% system_i/system_ila_0/inst/net_slot_2_axi_wstrb [3:0] $end
$var reg 2 0% system_i/system_ila_0/inst/net_slot_2_axi_aw_ctrl [1:0] $end
$var reg 1 2% system_i/system_ila_0/inst/net_slot_2_axi_awvalid $end
$var reg 1 3% system_i/system_ila_0/inst/net_slot_2_axi_awready $end
$var reg 2 4% system_i/system_ila_0/inst/net_slot_2_axi_w_ctrl [1:0] $end
$var reg 1 6% system_i/system_ila_0/inst/net_slot_2_axi_wvalid $end
$var reg 1 7% system_i/system_ila_0/inst/net_slot_2_axi_wready $end
$var reg 2 8% system_i/system_ila_0/inst/net_slot_2_axi_b_ctrl [1:0] $end
$var reg 1 :% system_i/system_ila_0/inst/net_slot_2_axi_bvalid $end
$var reg 1 ;% system_i/system_ila_0/inst/net_slot_2_axi_bready $end
$var reg 2 <% system_i/system_ila_0/inst/net_slot_2_axi_ar_ctrl [1:0] $end
$var reg 1 >% system_i/system_ila_0/inst/net_slot_2_axi_arvalid $end
$var reg 1 ?% system_i/system_ila_0/inst/net_slot_2_axi_arready $end
$var reg 1 @% system_i/system_ila_0/inst/net_slot_2_axi_rvalid $end
$var reg 2 A% system_i/system_ila_0/inst/net_slot_2_axi_r_ctrl [1:0] $end
$var reg 1 C% system_i/system_ila_0/inst/net_slot_2_axi_rready $end
$var reg 2 D% system_i/system_ila_0/inst/net_slot_3_axi_ar_cnt [1:0] $end
$var reg 32 F% system_i/system_ila_0/inst/net_slot_3_axi_araddr [31:0] $end
$var reg 8 f% system_i/system_ila_0/inst/net_slot_3_axi_arlen [7:0] $end
$var reg 3 n% system_i/system_ila_0/inst/net_slot_3_axi_arsize [2:0] $end
$var reg 2 q% system_i/system_ila_0/inst/net_slot_3_axi_aw_cnt [1:0] $end
$var reg 32 s% system_i/system_ila_0/inst/net_slot_3_axi_awaddr [31:0] $end
$var reg 8 5& system_i/system_ila_0/inst/net_slot_3_axi_awlen [7:0] $end
$var reg 3 =& system_i/system_ila_0/inst/net_slot_3_axi_awsize [2:0] $end
$var reg 2 @& system_i/system_ila_0/inst/net_slot_3_axi_b_cnt [1:0] $end
$var reg 2 B& system_i/system_ila_0/inst/net_slot_3_axi_r_cnt [1:0] $end
$var reg 64 D& system_i/system_ila_0/inst/net_slot_3_axi_rdata [63:0] $end
$var reg 2 &' system_i/system_ila_0/inst/net_slot_3_axi_rresp [1:0] $end
$var reg 64 (' system_i/system_ila_0/inst/net_slot_3_axi_wdata [63:0] $end
$var reg 1 h' system_i/system_ila_0/inst/net_slot_3_axi_awvalid $end
$var reg 2 i' system_i/system_ila_0/inst/net_slot_3_axi_aw_ctrl [1:0] $end
$var reg 1 k' system_i/system_ila_0/inst/net_slot_3_axi_awready $end
$var reg 3 l' system_i/system_ila_0/inst/net_slot_3_axi_w_ctrl [2:0] $end
$var reg 1 o' system_i/system_ila_0/inst/net_slot_3_axi_wvalid $end
$var reg 1 p' system_i/system_ila_0/inst/net_slot_3_axi_wready $end
$var reg 1 q' system_i/system_ila_0/inst/net_slot_3_axi_wlast $end
$var reg 1 r' system_i/system_ila_0/inst/net_slot_3_axi_bvalid $end
$var reg 2 s' system_i/system_ila_0/inst/net_slot_3_axi_b_ctrl [1:0] $end
$var reg 1 u' system_i/system_ila_0/inst/net_slot_3_axi_bready $end
$var reg 1 v' system_i/system_ila_0/inst/net_slot_3_axi_arvalid $end
$var reg 2 w' system_i/system_ila_0/inst/net_slot_3_axi_ar_ctrl [1:0] $end
$var reg 1 y' system_i/system_ila_0/inst/net_slot_3_axi_arready $end
$var reg 3 z' system_i/system_ila_0/inst/net_slot_3_axi_r_ctrl [2:0] $end
$var reg 1 }' system_i/system_ila_0/inst/net_slot_3_axi_rvalid $end
$var reg 1 ~' system_i/system_ila_0/inst/net_slot_3_axi_rready $end
$var reg 1 !( system_i/system_ila_0/inst/net_slot_3_axi_rlast $end
$var reg 2 "( system_i/system_ila_0/inst/net_slot_4_axi_ar_cnt [1:0] $end
$var reg 32 $( system_i/system_ila_0/inst/net_slot_4_axi_araddr [31:0] $end
$var reg 8 D( system_i/system_ila_0/inst/net_slot_4_axi_arlen [7:0] $end
$var reg 3 L( system_i/system_ila_0/inst/net_slot_4_axi_arsize [2:0] $end
$var reg 2 O( system_i/system_ila_0/inst/net_slot_4_axi_aw_cnt [1:0] $end
$var reg 32 Q( system_i/system_ila_0/inst/net_slot_4_axi_awaddr [31:0] $end
$var reg 8 q( system_i/system_ila_0/inst/net_slot_4_axi_awlen [7:0] $end
$var reg 3 y( system_i/system_ila_0/inst/net_slot_4_axi_awsize [2:0] $end
$var reg 2 |( system_i/system_ila_0/inst/net_slot_4_axi_b_cnt [1:0] $end
$var reg 2 ~( system_i/system_ila_0/inst/net_slot_4_axi_bresp [1:0] $end
$var reg 2 ") system_i/system_ila_0/inst/net_slot_4_axi_r_cnt [1:0] $end
$var reg 64 $) system_i/system_ila_0/inst/net_slot_4_axi_rdata [63:0] $end
$var reg 64 d) system_i/system_ila_0/inst/net_slot_4_axi_wdata [63:0] $end
$var reg 8 F* system_i/system_ila_0/inst/net_slot_4_axi_wstrb [7:0] $end
$var reg 2 N* system_i/system_ila_0/inst/net_slot_4_axi_aw_ctrl [1:0] $end
$var reg 1 P* system_i/system_ila_0/inst/net_slot_4_axi_awvalid $end
$var reg 1 Q* system_i/system_ila_0/inst/net_slot_4_axi_awready $end
$var reg 3 R* system_i/system_ila_0/inst/net_slot_4_axi_w_ctrl [2:0] $end
$var reg 1 U* system_i/system_ila_0/inst/net_slot_4_axi_wvalid $end
$var reg 1 V* system_i/system_ila_0/inst/net_slot_4_axi_wready $end
$var reg 1 W* system_i/system_ila_0/inst/net_slot_4_axi_wlast $end
$var reg 2 X* system_i/system_ila_0/inst/net_slot_4_axi_b_ctrl [1:0] $end
$var reg 1 Z* system_i/system_ila_0/inst/net_slot_4_axi_bvalid $end
$var reg 1 [* system_i/system_ila_0/inst/net_slot_4_axi_bready $end
$var reg 2 \* system_i/system_ila_0/inst/net_slot_4_axi_ar_ctrl [1:0] $end
$var reg 1 ^* system_i/system_ila_0/inst/net_slot_4_axi_arvalid $end
$var reg 1 _* system_i/system_ila_0/inst/net_slot_4_axi_arready $end
$var reg 1 `* system_i/system_ila_0/inst/net_slot_4_axi_rvalid $end
$var reg 3 a* system_i/system_ila_0/inst/net_slot_4_axi_r_ctrl [2:0] $end
$var reg 1 d* system_i/system_ila_0/inst/net_slot_4_axi_rready $end
$var reg 1 e* system_i/system_ila_0/inst/net_slot_4_axi_rlast $end
$var reg 24 f* system_i/system_ila_0/inst/net_slot_5_axis_tdata [23:0] $end
$var reg 1 ~* system_i/system_ila_0/inst/net_slot_5_axis_tuser $end
$var reg 1 !+ system_i/system_ila_0/inst/net_slot_5_axis_tvalid $end
$var reg 1 "+ system_i/system_ila_0/inst/net_slot_5_axis_tready $end
$var reg 1 #+ system_i/system_ila_0/inst/net_slot_5_axis_tlast $end
$var reg 24 $+ system_i/system_ila_0/inst/net_slot_6_axis_tdata [23:0] $end
$var reg 1 <+ system_i/system_ila_0/inst/net_slot_6_axis_tuser $end
$var reg 1 =+ system_i/system_ila_0/inst/net_slot_6_axis_tvalid $end
$var reg 1 >+ system_i/system_ila_0/inst/net_slot_6_axis_tready $end
$var reg 1 ?+ system_i/system_ila_0/inst/net_slot_6_axis_tlast $end
$var reg 2 @+ system_i/system_ila_0/inst/net_slot_7_axi_ar_cnt [1:0] $end
$var reg 9 B+ system_i/system_ila_0/inst/net_slot_7_axi_araddr [8:0] $end
$var reg 2 K+ system_i/system_ila_0/inst/net_slot_7_axi_aw_cnt [1:0] $end
$var reg 9 M+ system_i/system_ila_0/inst/net_slot_7_axi_awaddr [8:0] $end
$var reg 2 V+ system_i/system_ila_0/inst/net_slot_7_axi_b_cnt [1:0] $end
$var reg 2 X+ system_i/system_ila_0/inst/net_slot_7_axi_bresp [1:0] $end
$var reg 2 Z+ system_i/system_ila_0/inst/net_slot_7_axi_r_cnt [1:0] $end
$var reg 32 \+ system_i/system_ila_0/inst/net_slot_7_axi_rdata [31:0] $end
$var reg 2 |+ system_i/system_ila_0/inst/net_slot_7_axi_rresp [1:0] $end
$var reg 32 ~+ system_i/system_ila_0/inst/net_slot_7_axi_wdata [31:0] $end
$var reg 4 @, system_i/system_ila_0/inst/net_slot_7_axi_wstrb [3:0] $end
$var reg 2 D, system_i/system_ila_0/inst/net_slot_7_axi_aw_ctrl [1:0] $end
$var reg 1 F, system_i/system_ila_0/inst/net_slot_7_axi_awvalid $end
$var reg 1 G, system_i/system_ila_0/inst/net_slot_7_axi_awready $end
$var reg 1 H, system_i/system_ila_0/inst/net_slot_7_axi_wvalid $end
$var reg 2 I, system_i/system_ila_0/inst/net_slot_7_axi_w_ctrl [1:0] $end
$var reg 1 K, system_i/system_ila_0/inst/net_slot_7_axi_wready $end
$var reg 1 L, system_i/system_ila_0/inst/net_slot_7_axi_bvalid $end
$var reg 2 M, system_i/system_ila_0/inst/net_slot_7_axi_b_ctrl [1:0] $end
$var reg 1 O, system_i/system_ila_0/inst/net_slot_7_axi_bready $end
$var reg 2 P, system_i/system_ila_0/inst/net_slot_7_axi_ar_ctrl [1:0] $end
$var reg 1 R, system_i/system_ila_0/inst/net_slot_7_axi_arvalid $end
$var reg 1 S, system_i/system_ila_0/inst/net_slot_7_axi_arready $end
$var reg 2 T, system_i/system_ila_0/inst/net_slot_7_axi_r_ctrl [1:0] $end
$var reg 1 V, system_i/system_ila_0/inst/net_slot_7_axi_rvalid $end
$var reg 1 W, system_i/system_ila_0/inst/net_slot_7_axi_rready $end
$var reg 3 X, AR_Channel__i1_s1___axi_interconnect_1_M00_AXI_ [2:0] $end
$var reg 3 [, AR_Channel__i1_s2___axi_interconnect_0_M00_AXI_ [2:0] $end
$var reg 3 ^, AR_Channel__i1_s3___axi_vdma_0_M_AXI_MM2S_ [2:0] $end
$var reg 3 a, AR_Channel__i1_s4___axi_vdma_1_M_AXI_S2MM_ [2:0] $end
$var reg 3 d, AR_Channel__i1_s7___axi_interconnect_0_M01_AXI_ [2:0] $end
$var reg 3 g, AW_Channel__i1_s1___axi_interconnect_1_M00_AXI_ [2:0] $end
$var reg 3 j, AW_Channel__i1_s2___axi_interconnect_0_M00_AXI_ [2:0] $end
$var reg 3 m, AW_Channel__i1_s3___axi_vdma_0_M_AXI_MM2S_ [2:0] $end
$var reg 3 p, AW_Channel__i1_s4___axi_vdma_1_M_AXI_S2MM_ [2:0] $end
$var reg 3 s, AW_Channel__i1_s7___axi_interconnect_0_M01_AXI_ [2:0] $end
$var reg 3 v, B_Channel__i1_s1___axi_interconnect_1_M00_AXI_ [2:0] $end
$var reg 3 y, B_Channel__i1_s2___axi_interconnect_0_M00_AXI_ [2:0] $end
$var reg 3 |, B_Channel__i1_s3___axi_vdma_0_M_AXI_MM2S_ [2:0] $end
$var reg 3 !- B_Channel__i1_s4___axi_vdma_1_M_AXI_S2MM_ [2:0] $end
$var reg 3 $- B_Channel__i1_s7___axi_interconnect_0_M01_AXI_ [2:0] $end
$var reg 3 '- Interface__i1_s0___axi_vdma_0_M_AXIS_MM2S_ [2:0] $end
$var reg 3 *- Interface__i1_s1___axi_interconnect_1_M00_AXI_ [2:0] $end
$var reg 3 -- Interface__i1_s2___axi_interconnect_0_M00_AXI_ [2:0] $end
$var reg 3 0- Interface__i1_s3___axi_vdma_0_M_AXI_MM2S_ [2:0] $end
$var reg 3 3- Interface__i1_s4___axi_vdma_1_M_AXI_S2MM_ [2:0] $end
$var reg 3 6- Interface__i1_s5___v_vid_in_axi4s_0_video_out_ [2:0] $end
$var reg 3 9- Interface__i1_s6___axis_subset_converter_0_M_AXIS_ [2:0] $end
$var reg 3 <- Interface__i1_s7___axi_interconnect_0_M01_AXI_ [2:0] $end
$var reg 3 ?- R_Channel__i1_s1___axi_interconnect_1_M00_AXI_ [2:0] $end
$var reg 3 B- R_Channel__i1_s2___axi_interconnect_0_M00_AXI_ [2:0] $end
$var reg 3 E- R_Channel__i1_s3___axi_vdma_0_M_AXI_MM2S_ [2:0] $end
$var reg 3 H- R_Channel__i1_s4___axi_vdma_1_M_AXI_S2MM_ [2:0] $end
$var reg 3 K- R_Channel__i1_s7___axi_interconnect_0_M01_AXI_ [2:0] $end
$var reg 3 N- T_Channel__i1_s0___axi_vdma_0_M_AXIS_MM2S_ [2:0] $end
$var reg 3 Q- T_Channel__i1_s5___v_vid_in_axi4s_0_video_out_ [2:0] $end
$var reg 3 T- T_Channel__i1_s6___axis_subset_converter_0_M_AXIS_ [2:0] $end
$var reg 3 W- W_Channel__i1_s1___axi_interconnect_1_M00_AXI_ [2:0] $end
$var reg 3 Z- W_Channel__i1_s2___axi_interconnect_0_M00_AXI_ [2:0] $end
$var reg 3 ]- W_Channel__i1_s3___axi_vdma_0_M_AXI_MM2S_ [2:0] $end
$var reg 3 `- W_Channel__i1_s4___axi_vdma_1_M_AXI_S2MM_ [2:0] $end
$var reg 3 c- W_Channel__i1_s7___axi_interconnect_0_M01_AXI_ [2:0] $end
$var reg 16 f- slot_1___axi_interconnect_1_M00_AXI___Read_Transactions_0 [15:0] $end
$var reg 16 v- slot_1___axi_interconnect_1_M00_AXI___Write_Transactions_0 [15:0] $end
$var reg 16 (. slot_3___axi_vdma_0_M_AXI_MM2S___Read_Transactions_0 [15:0] $end
$var reg 16 8. slot_4___axi_vdma_1_M_AXI_S2MM___Write_Transactions_0 [15:0] $end
$var reg 16 H. slot_4___axi_vdma_1_M_AXI_S2MM___Write_Transactions_1 [15:0] $end
$var reg 1 X. _TRIGGER $end
$var reg 1 Y. _WINDOW $end
$var reg 1 Z. _GAP $end
$upscope $end
$enddefinitions $end
#0
$dumpvars
b100000000111110010001000 "
b111 :
0=
1>
0?
0@
b0 A
b0 C
0c
b0 d
b0 h
b0 k
b0 n
b0 p
12"
b0 3"
b0 7"
b0 :"
b0 ="
1?"
b0 @"
b0 B"
b110000001010100010110000110000001010000010110000101100001010000 D"
0&#
b0 '#
b110000001100000010111000101100001100000010110000110100001100000 )#
1i#
b11111111 j#
0r#
b10 s#
1u#
1v#
b11 w#
1z#
0{#
b0 |#
0~#
0!$
b10 "$
0$$
1%$
b11 &$
1)$
1*$
0+$
b0 ,$
b100 .$
b0 7$
b100 9$
b0 B$
b0 D$
b0 F$
b11111000000000001 H$
b0 h$
b11111000000000001 j$
b1111 ,%
b0 0%
02%
03%
b0 4%
06%
07%
b10 8%
0:%
1;%
b0 <%
0>%
0?%
0@%
b10 A%
1C%
b1 D%
b0 F%
b0 f%
b0 n%
b0 q%
b0 s%
b0 5&
b11 =&
b0 @&
b1 B&
b101100001011000010011000101100001011000010010000101100001010000 D&
b0 &'
b0 ('
0h'
b0 i'
0k'
b0 l'
0o'
0p'
0q'
0r'
b0 s'
0u'
0v'
b0 w'
0y'
b11 z'
1}'
1~'
0!(
b0 "(
b0 $(
b0 D(
b11 L(
b1 O(
b0 Q(
b0 q(
b0 y(
b1 |(
b0 ~(
b0 ")
b0 $)
b110000001100000010111000101100001100000010110000110100001100000 d)
b11111111 F*
b0 N*
0P*
0Q*
b11 R*
1U*
1V*
0W*
b10 X*
0Z*
1[*
b0 \*
0^*
0_*
0`*
b0 a*
0d*
0e*
b1010000010010000110000 f*
0~*
0!+
1"+
0#+
b1010000010010000110000 $+
0<+
0=+
1>+
0?+
b0 @+
b110100 B+
b0 K+
b110100 M+
b0 V+
b0 X+
b0 Z+
b1010000000011111000000000001 \+
b0 |+
b11111000000000001 ~+
b1111 @,
b0 D,
0F,
0G,
0H,
b0 I,
0K,
0L,
b10 M,
1O,
b0 P,
0R,
0S,
b10 T,
0V,
1W,
b0 X,
b11 [,
b0 ^,
b11 a,
b11 d,
b0 g,
b11 j,
b11 m,
b0 p,
b11 s,
b0 v,
b11 y,
b11 |,
b0 !-
b11 $-
b0 '-
b1 *-
b11 --
b1 0-
b1 3-
b0 6-
b0 9-
b11 <-
b1 ?-
b100 B-
b1 E-
b100 H-
b100 K-
b0 N-
b0 Q-
b0 T-
b1 W-
b100 Z-
b100 ]-
b1 `-
b100 c-
b0 f-
b0 v-
b0 (.
b0 8.
b0 H.
0X.
1Y.
0Z.
$end
#1
1?
b101110001011000011010000101110001011000011010000101100001011000 D"
b110100001101000011010000110100001100100011010000110100001100000 )#
b110000001010100010110000110000001010000010110000101100001010000 D&
b110100001101000011010000110100001100100011010000110100001100000 d)
b1100000010110000111000 f*
1!+
b1100000010110000111000 $+
1=+
b1 '-
b1 6-
b1 9-
b1 N-
b1 Q-
b1 T-
#2
b11110000111110010001000 "
b110100001011000010111000110000001100000010111000101100001100000 D"
b110110001101000011010000110110001101000011000000110100001101000 )#
b101110001011000011010000101110001011000011010000101100001011000 D&
b110110001101000011010000110110001101000011000000110100001101000 d)
0!+
0=+
b0 6-
b0 9-
b0 Q-
b0 T-
#3
b110000001101100011010000110000001101000011010000110000001100000 D"
b110100001011000011100000110100001100000011011000110100001100000 )#
b110100001011000010111000110000001100000010111000101100001100000 D&
b110100001011000011100000110100001100000011011000110100001100000 d)
#4
b11110000111100010000000 "
0?
b11 ="
b110110001110000011010000110110001110000011000000110110001110000 D"
b101000001010000011000000110000001011100011100000101100001101100 )#
b111 w#
1{#
b11 |#
1~#
1!$
b110000001101100011010000110000001101000011010000110000001100000 D&
b101000001010000011000000110000001011100011100000101100001101100 d)
b1110000011000001000000 f*
1!+
b1110000011000001000000 $+
1=+
b10 v,
b0 '-
b1 6-
b1 9-
b0 N-
b1 Q-
b1 T-
b111 W-
#5
1?
b0 ="
b111000001111000011100000111000001110000011100000111000001110000 D"
b11010001101000010100000100110001101000010110000101000001110000 )#
b11 w#
0{#
b0 |#
0~#
0!$
b110110001110000011010000110110001110000011000000110110001110000 D&
b11010001101000010100000100110001101000010110000101000001110000 d)
0!+
0=+
b0 v,
b1 '-
b0 6-
b0 9-
b1 N-
b0 Q-
b0 T-
b1 W-
#6
b11 B"
b111100001110000011110000111000001110000011110000111100001110000 D"
b111000001011000010000000111000001011000001111000111000001010000 )#
b111 &$
1+$
b111000001111000011100000111000001110000011100000111000001110000 D&
b111000001011000010000000111000001011000001111000111000001010000 d)
b1100000010110000111000 f*
1!+
b1100000010110000111000 $+
1=+
b1 6-
b1 9-
b111 ?-
b1 Q-
b1 T-
#7
b100000000111100010001000 "
b0 B"
b111100010000000011110000111100001111000011110000111010001111000 D"
b101100001000100011100000101100001000100011100000101100001000000 )#
b11 &$
0+$
b111100001110000011110000111000001110000011110000111100001110000 D&
b101100001000100011100000101100001000100011100000101100001000000 d)
0!+
0=+
b0 6-
b0 9-
b1 ?-
b0 Q-
b0 T-
#8
0?
b1000000001111000011110001000000001111000011110001000000001111000 D"
b100010001110000010100000100010001110000010100000100010001110000 )#
b111100010000000011110000111100001111000011110000111010001111000 D&
b100010001110000010100000100010001110000010100000100010001110000 d)
b1100000010100000111000 f*
1!+
b1100000010100000111000 $+
1=+
b0 '-
b1 6-
b1 9-
b0 N-
b1 Q-
b1 T-
#9
1?
b111100001111100100000000111100001111100100000000111100001111000 D"
b110100001010000010000000110100001001000010001000110100001001000 )#
b1000000001111000011110001000000001111000011110001000000001111000 D&
b110100001010000010000000110100001001000010001000110100001001000 d)
0!+
0=+
b1 '-
b0 6-
b0 9-
b1 N-
b0 Q-
b0 T-
#10
b111110010000000011110000111110010000000100000001000000010000000 D"
b101100001000100011100000101000000111100011010000101000001000000 )#
b111100001111100100000000111100001111100100000000111100001111000 D&
b101100001000100011100000101000000111100011010000101000001000000 d)
#11
0?
b111100001111000011110000111100001111000011110001000000010000000 D"
b111000001110000011010000110000001110000011000000101010001101000 )#
b111110010000000011110000111110010000000100000001000000010000000 D&
b111000001110000011010000110000001110000011000000101010001101000 d)
1!+
1=+
b0 '-
b1 6-
b1 9-
b0 N-
b1 Q-
b1 T-
#12
1?
b111100001111100011110000111100001111100011110000111100001111100 D"
b111000001101000011011000111000001101000011100000110100001101000 )#
b111100001111000011110000111100001111000011110001000000010000000 D&
b111000001101000011011000111000001101000011100000110100001101000 d)
0!+
0=+
b1 '-
b0 6-
b0 9-
b1 N-
b0 Q-
b0 T-
#13
b11110000111110010000000 "
b111110010000000100000000111110001111000100000000111110001111000 D"
b110000001100100011010000110000001101000011100000110100001101000 )#
b111100001111100011110000111100001111100011110000111100001111100 D&
b110000001100100011010000110000001101000011100000110100001101000 d)
b1010000010000000110000 f*
1!+
b1010000010000000110000 $+
1=+
b1 6-
b1 9-
b1 Q-
b1 T-
#14
b11110000111110010001000 "
b1000000001111000100000001000000001111000011111001000000001111000 D"
b111000001101000011000000110110001101000011000000110010001100000 )#
b111110010000000100000000111110001111000100000000111110001111000 D&
b111000001101000011000000110110001101000011000000110010001100000 d)
0!+
0=+
b0 6-
b0 9-
b0 Q-
b0 T-
#15
b11110000111110010000000 "
0?
b1000100001111100100000001000100001111100100000000111100010000000 D"
b110100001110000011101000111000001101000011101000110100001101000 )#
b1000000001111000100000001000000001111000011111001000000001111000 D&
b110100001110000011101000111000001101000011101000110100001101000 d)
b1010000001110000110000 f*
1!+
b1010000001110000110000 $+
1=+
b0 '-
b1 6-
b1 9-
b0 N-
b1 Q-
b1 T-
#16
1?
b111110001111000100010000111100001111000100010000111100010000000 D"
b110100001101100011010000110100001101100011000000110100001110000 )#
b1000100001111100100000001000100001111100100000000111100010000000 D&
b110100001101100011010000110100001101100011000000110100001110000 d)
0!+
0=+
b1 '-
b0 6-
b0 9-
b1 N-
b0 Q-
b0 T-
#17
b111100010000000100000000111100010000000011111000111100010000000 D"
b110100001101000011010000110110001100000011010000110110001101000 )#
b111110001111000100010000111100001111000100010000111100010000000 D&
b110100001101000011010000110110001100000011010000110110001101000 d)
b1000000001110000101000 f*
1!+
b1000000001110000101000 $+
1=+
b1 6-
b1 9-
b1 Q-
b1 T-
#18
b100000000111110010001000 "
b1000000010000100011110001000000010000100011110001000000010000000 D"
b110100001110000011010000110100001110000011010000110100001110000 )#
b111100010000000100000000111100010000000011111000111100010000000 D&
b110100001110000011010000110100001110000011010000110100001110000 d)
0!+
0=+
b0 6-
b0 9-
b0 Q-
b0 T-
#19
b100000000111100010000000 "
0?
b111110010000000100010000111110010000000100010000111110010000000 D"
b110100001101100011010000110100001101100011010000111000001101100 )#
b1000000010000100011110001000000010000100011110001000000010000000 D&
b110100001101100011010000110100001101100011010000111000001101100 d)
b0 '-
b0 N-
#20
1?
b11 ="
b1000000001111000011111001000000010000000011111001000000010000000 D"
b110110001101000011010000110110001101000011010000110110001101000 )#
b111 w#
1{#
b11 |#
1~#
1!$
b111110010000000100010000111110010000000100010000111110010000000 D&
b110110001101000011010000110110001101000011010000110110001101000 d)
1!+
1=+
b10 v,
b1 '-
b1 6-
b1 9-
b1 N-
b1 Q-
b1 T-
b111 W-
#21
b100000000111110010000000 "
b0 ="
b1000000001111100100000001000000001111000100000001000000001111100 D"
b110100001101000011011000110100001101000011011000110100001101000 )#
b11 w#
0{#
b0 |#
0~#
0!$
b1000000001111000011111001000000010000000011111001000000010000000 D&
b110100001101000011011000110100001101000011011000110100001101000 d)
0!+
0=+
b0 v,
b0 6-
b0 9-
b0 Q-
b0 T-
b1 W-
#22
b11 B"
b111110001111000100000001000000010000000100000001000000010000000 D"
b110000001101100011010000110100001110100011100000110100001101100 )#
b111 &$
1+$
b1000000001111100100000001000000001111000100000001000000001111100 D&
b110000001101100011010000110100001110100011100000110100001101100 d)
1!+
1=+
b1 6-
b1 9-
b111 ?-
b1 Q-
b1 T-
#23
b100000001000000010000000 "
0?
b0 B"
b111000001110000011110000111100001111000011110000111100001111000 D"
b1000000100000001110000010010001000000011000000100100001100000 )#
b11 &$
0+$
b111110001111000100000001000000010000000100000001000000010000000 D&
b1000000100000001110000010010001000000011000000100100001100000 d)
0!+
0=+
b0 '-
b0 6-
b0 9-
b1 ?-
b0 N-
b0 Q-
b0 T-
#24
1?
b110100001101000011100000111000001101100011100000111000001110100 D"
b10100000111000001000000010100001000000000110000010100000111000 )#
b111000001110000011110000111100001111000011110000111100001111000 D&
b10100000111000001000000010100001000000000110000010100000111000 d)
b1010000010010000101000 f*
1!+
b1010000010010000101000 $+
1=+
b1 '-
b1 6-
b1 9-
b1 N-
b1 Q-
b1 T-
#25
b101110001101000011010000110010001101000011100000110010001101000 D"
b11100000011100001000000011100000011100001010000011100000100000 )#
b110100001101000011100000111000001101100011100000111000001110100 D&
b11100000011100001000000011100000011100001010000011100000100000 d)
0!+
0=+
b0 6-
b0 9-
b0 Q-
b0 T-
#26
b100000000111100010001000 "
b110100001101000010110000110100001101000010110000110100001110000 D"
b1110000100000001100000001110000100000001100000001100000100000 )#
b101110001101000011010000110010001101000011100000110010001101000 D&
b1110000100000001100000001110000100000001100000001100000100000 d)
